
{
  "header": {
    "reportVersion": 1,
    "event": "Allocation failed - JavaScript heap out of memory",
    "trigger": "FatalError",
    "filename": "report.20210915.192032.377005.0.001.json",
    "dumpEventTime": "2021-09-15T19:20:32Z",
    "dumpEventTimeStamp": "1631713832215",
    "processId": 377005,
    "cwd": "/home/prafful/Projects/rha/packages/rha-ui",
    "commandLine": [
      "node",
      "/home/prafful/Projects/rha/packages/rha-ui/node_modules/.bin/ng",
      "serve"
    ],
    "nodejsVersion": "v12.14.1",
    "glibcVersionRuntime": "2.31",
    "glibcVersionCompiler": "2.17",
    "wordSize": 64,
    "arch": "x64",
    "platform": "linux",
    "componentVersions": {
      "node": "12.14.1",
      "v8": "7.7.299.13-node.16",
      "uv": "1.33.1",
      "zlib": "1.2.11",
      "brotli": "1.0.7",
      "ares": "1.15.0",
      "modules": "72",
      "nghttp2": "1.40.0",
      "napi": "5",
      "llhttp": "2.0.1",
      "http_parser": "2.8.0",
      "openssl": "1.1.1d",
      "cldr": "35.1",
      "icu": "64.2",
      "tz": "2019c",
      "unicode": "12.1"
    },
    "release": {
      "name": "node",
      "lts": "Erbium",
      "headersUrl": "https://nodejs.org/download/release/v12.14.1/node-v12.14.1-headers.tar.gz",
      "sourceUrl": "https://nodejs.org/download/release/v12.14.1/node-v12.14.1.tar.gz"
    },
    "osName": "Linux",
    "osRelease": "5.11.0-34-generic",
    "osVersion": "#36~20.04.1-Ubuntu SMP Fri Aug 27 08:06:32 UTC 2021",
    "osMachine": "x86_64",
    "cpus": [
      {
        "model": "Intel(R) Core(TM) i3-6100U CPU @ 2.30GHz",
        "speed": 2300,
        "user": 192216600,
        "nice": 355200,
        "sys": 38466200,
        "idle": 561535400,
        "irq": 0
      },
      {
        "model": "Intel(R) Core(TM) i3-6100U CPU @ 2.30GHz",
        "speed": 1992,
        "user": 182023200,
        "nice": 268900,
        "sys": 34705200,
        "idle": 2538400,
        "irq": 0
      },
      {
        "model": "Intel(R) Core(TM) i3-6100U CPU @ 2.30GHz",
        "speed": 2300,
        "user": 198142600,
        "nice": 431100,
        "sys": 32557500,
        "idle": 2536200,
        "irq": 0
      },
      {
        "model": "Intel(R) Core(TM) i3-6100U CPU @ 2.30GHz",
        "speed": 2300,
        "user": 201707400,
        "nice": 362400,
        "sys": 33455600,
        "idle": 2523600,
        "irq": 0
      }
    ],
    "networkInterfaces": [
      {
        "name": "lo",
        "internal": true,
        "mac": "00:00:00:00:00:00",
        "address": "127.0.0.1",
        "netmask": "255.0.0.0",
        "family": "IPv4"
      },
      {
        "name": "wlp1s0",
        "internal": false,
        "mac": "e4:02:9b:49:e1:07",
        "address": "192.168.0.110",
        "netmask": "255.255.255.0",
        "family": "IPv4"
      },
      {
        "name": "br-2160006de0b9",
        "internal": false,
        "mac": "02:42:3b:ea:fe:e7",
        "address": "172.28.0.1",
        "netmask": "255.255.0.0",
        "family": "IPv4"
      },
      {
        "name": "docker_gwbridge",
        "internal": false,
        "mac": "02:42:19:b4:41:d5",
        "address": "172.23.0.1",
        "netmask": "255.255.0.0",
        "family": "IPv4"
      },
      {
        "name": "br-95b1d2d5f0c4",
        "internal": false,
        "mac": "02:42:b4:3a:28:9f",
        "address": "172.25.0.1",
        "netmask": "255.255.0.0",
        "family": "IPv4"
      },
      {
        "name": "lo",
        "internal": true,
        "mac": "00:00:00:00:00:00",
        "address": "::1",
        "netmask": "ffff:ffff:ffff:ffff:ffff:ffff:ffff:ffff",
        "family": "IPv6",
        "scopeid": 0
      },
      {
        "name": "wlp1s0",
        "internal": false,
        "mac": "e4:02:9b:49:e1:07",
        "address": "fe80::4501:f154:c0cf:30e2",
        "netmask": "ffff:ffff:ffff:ffff::",
        "family": "IPv6",
        "scopeid": 3
      },
      {
        "name": "br-2160006de0b9",
        "internal": false,
        "mac": "02:42:3b:ea:fe:e7",
        "address": "fe80::42:3bff:feea:fee7",
        "netmask": "ffff:ffff:ffff:ffff::",
        "family": "IPv6",
        "scopeid": 4
      },
      {
        "name": "docker_gwbridge",
        "internal": false,
        "mac": "02:42:19:b4:41:d5",
        "address": "fe80::42:19ff:feb4:41d5",
        "netmask": "ffff:ffff:ffff:ffff::",
        "family": "IPv6",
        "scopeid": 8
      },
      {
        "name": "br-95b1d2d5f0c4",
        "internal": false,
        "mac": "02:42:b4:3a:28:9f",
        "address": "fe80::42:b4ff:fe3a:289f",
        "netmask": "ffff:ffff:ffff:ffff::",
        "family": "IPv6",
        "scopeid": 10
      },
      {
        "name": "veth10424ec",
        "internal": false,
        "mac": "ce:c5:6d:49:a7:fe",
        "address": "fe80::ccc5:6dff:fe49:a7fe",
        "netmask": "ffff:ffff:ffff:ffff::",
        "family": "IPv6",
        "scopeid": 19
      },
      {
        "name": "veth7f17350",
        "internal": false,
        "mac": "e2:05:7e:74:35:04",
        "address": "fe80::e005:7eff:fe74:3504",
        "netmask": "ffff:ffff:ffff:ffff::",
        "family": "IPv6",
        "scopeid": 21
      },
      {
        "name": "veth0d21aec",
        "internal": false,
        "mac": "de:17:69:79:2f:40",
        "address": "fe80::dc17:69ff:fe79:2f40",
        "netmask": "ffff:ffff:ffff:ffff::",
        "family": "IPv6",
        "scopeid": 25
      },
      {
        "name": "veth7b30f3d",
        "internal": false,
        "mac": "a2:81:f1:18:1b:3f",
        "address": "fe80::a081:f1ff:fe18:1b3f",
        "netmask": "ffff:ffff:ffff:ffff::",
        "family": "IPv6",
        "scopeid": 27
      },
      {
        "name": "vethe08f8ee",
        "internal": false,
        "mac": "96:16:6f:5a:01:1f",
        "address": "fe80::9416:6fff:fe5a:11f",
        "netmask": "ffff:ffff:ffff:ffff::",
        "family": "IPv6",
        "scopeid": 33
      },
      {
        "name": "veth97d462b",
        "internal": false,
        "mac": "56:68:e8:e1:42:d6",
        "address": "fe80::5468:e8ff:fee1:42d6",
        "netmask": "ffff:ffff:ffff:ffff::",
        "family": "IPv6",
        "scopeid": 55
      }
    ],
    "host": "osama"
  },
  "javascriptStack": {
    "message": "No stack.",
    "stack": [
      "Unavailable."
    ]
  },
  "nativeStack": [
    {
      "pc": "0x0000000000b05ba5",
      "symbol": "report::TriggerNodeReport(v8::Isolate*, node::Environment*, char const*, char const*, std::string const&, v8::Local<v8::String>) [ng serve]"
    },
    {
      "pc": "0x00000000009dbd93",
      "symbol": "node::OnFatalError(char const*, char const*) [ng serve]"
    },
    {
      "pc": "0x0000000000b3b18e",
      "symbol": "v8::Utils::ReportOOMFailure(v8::internal::Isolate*, char const*, bool) [ng serve]"
    },
    {
      "pc": "0x0000000000b3b509",
      "symbol": "v8::internal::V8::FatalProcessOutOfMemory(v8::internal::Isolate*, char const*, bool) [ng serve]"
    },
    {
      "pc": "0x0000000000ce68a5",
      "symbol": " [ng serve]"
    },
    {
      "pc": "0x0000000000ce6f36",
      "symbol": "v8::internal::Heap::RecomputeLimits(v8::internal::GarbageCollector) [ng serve]"
    },
    {
      "pc": "0x0000000000cf2dca",
      "symbol": "v8::internal::Heap::PerformGarbageCollection(v8::internal::GarbageCollector, v8::GCCallbackFlags) [ng serve]"
    },
    {
      "pc": "0x0000000000cf3cd5",
      "symbol": "v8::internal::Heap::CollectGarbage(v8::internal::AllocationSpace, v8::internal::GarbageCollectionReason, v8::GCCallbackFlags) [ng serve]"
    },
    {
      "pc": "0x0000000000cf66e8",
      "symbol": "v8::internal::Heap::AllocateRawWithRetryOrFail(int, v8::internal::AllocationType, v8::internal::AllocationAlignment) [ng serve]"
    },
    {
      "pc": "0x0000000000cbd017",
      "symbol": "v8::internal::Factory::NewFillerObject(int, bool, v8::internal::AllocationType) [ng serve]"
    },
    {
      "pc": "0x0000000000ff307b",
      "symbol": "v8::internal::Runtime_AllocateInYoungGeneration(int, unsigned long*, v8::internal::Isolate*) [ng serve]"
    },
    {
      "pc": "0x0000000001376259",
      "symbol": " [ng serve]"
    }
  ],
  "javascriptHeap": {
    "totalMemory": 2178097152,
    "totalCommittedMemory": 2167402808,
    "usedMemory": 2129027912,
    "availableMemory": 52171576,
    "memoryLimit": 2197815296,
    "heapSpaces": {
      "read_only_space": {
        "memorySize": 262144,
        "committedMemory": 32568,
        "capacity": 261872,
        "used": 32296,
        "available": 229576
      },
      "new_space": {
        "memorySize": 27262976,
        "committedMemory": 17519872,
        "capacity": 13617344,
        "used": 4378648,
        "available": 9238696
      },
      "old_space": {
        "memorySize": 1878372352,
        "committedMemory": 1878068576,
        "capacity": 1867018896,
        "used": 1857651080,
        "available": 9367816
      },
      "code_space": {
        "memorySize": 13795328,
        "committedMemory": 13378304,
        "capacity": 11787040,
        "used": 11787040,
        "available": 0
      },
      "map_space": {
        "memorySize": 6557696,
        "committedMemory": 6556832,
        "capacity": 4869840,
        "used": 4869840,
        "available": 0
      },
      "large_object_space": {
        "memorySize": 251224064,
        "committedMemory": 251224064,
        "capacity": 249758352,
        "used": 249758352,
        "available": 0
      },
      "code_large_object_space": {
        "memorySize": 622592,
        "committedMemory": 622592,
        "capacity": 550656,
        "used": 550656,
        "available": 0
      },
      "new_large_object_space": {
        "memorySize": 0,
        "committedMemory": 0,
        "capacity": 13617344,
        "used": 0,
        "available": 13617344
      }
    }
  },
  "resourceUsage": {
    "userCpuSeconds": 845.423,
    "kernelCpuSeconds": 19.0054,
    "cpuConsumptionPercent": 5.97559,
    "maxRss": 2472505344,
    "pageFaults": {
      "IORequired": 27,
      "IONotRequired": 2909460
    },
    "fsActivity": {
      "reads": 107976,
      "writes": 11448
    }
  },
  "uvthreadResourceUsage": {
    "userCpuSeconds": 389.862,
    "kernelCpuSeconds": 10.8232,
    "cpuConsumptionPercent": 2.76984,
    "fsActivity": {
      "reads": 77968,
      "writes": 24
    }
  },
  "libuv": [
  ],
  "environmentVariables": {
    "GJS_DEBUG_TOPICS": "JS ERROR;JS LOG",
    "LANGUAGE": "en_IN:en",
    "USER": "prafful",
    "npm_config_user_agent": "npm/7.22.0 node/v12.14.1 linux x64 workspaces/false",
    "SSH_AGENT_PID": "1602",
    "XDG_SESSION_TYPE": "x11",
    "GIT_ASKPASS": "/snap/code/73/usr/share/code/resources/app/extensions/git/dist/askpass.sh",
    "npm_node_execpath": "/home/prafful/.nvm/versions/node/v12.14.1/bin/node",
    "SHLVL": "0",
    "npm_config_noproxy": "",
    "HOME": "/home/prafful",
    "CHROME_DESKTOP": "code-url-handler.desktop",
    "OLDPWD": "/home/prafful/Projects/rha/packages/rha-ui",
    "LESS": "-R",
    "DESKTOP_SESSION": "ubuntu",
    "NVM_BIN": "/home/prafful/.nvm/versions/node/v12.14.1/bin",
    "TERM_PROGRAM_VERSION": "1.60.0",
    "npm_package_json": "/home/prafful/Projects/rha/packages/rha-ui/package.json",
    "NVM_INC": "/home/prafful/.nvm/versions/node/v12.14.1/include/node",
    "GIO_LAUNCHED_DESKTOP_FILE": "/var/lib/snapd/desktop/applications/code_code.desktop",
    "ZSH": "/home/prafful/.oh-my-zsh",
    "LSCOLORS": "Gxfxcxdxbxegedabagacad",
    "GNOME_SHELL_SESSION_MODE": "ubuntu",
    "GTK_MODULES": "gail:atk-bridge",
    "APPLICATION_INSIGHTS_NO_DIAGNOSTIC_CHANNEL": "true",
    "PAGER": "less",
    "VSCODE_GIT_ASKPASS_MAIN": "/snap/code/73/usr/share/code/resources/app/extensions/git/dist/askpass-main.js",
    "MANAGERPID": "1053",
    "VSCODE_GIT_ASKPASS_NODE": "/snap/code/73/usr/share/code/code",
    "npm_config_userconfig": "/home/prafful/.npmrc",
    "npm_config_local_prefix": "/home/prafful/Projects/rha/packages/rha-ui",
    "DBUS_SESSION_BUS_ADDRESS": "unix:path=/run/user/1000/bus",
    "GIO_LAUNCHED_DESKTOP_FILE_PID": "193261",
    "COLORTERM": "truecolor",
    "COLOR": "1",
    "NVM_DIR": "/home/prafful/.nvm",
    "npm_config_metrics_registry": "https://registry.npmjs.org/",
    "IM_CONFIG_PHASE": "1",
    "LOGNAME": "prafful",
    "JOURNAL_STREAM": "8:41202",
    "_": "/home/prafful/.nvm/versions/node/v12.14.1/bin/npm",
    "npm_config_prefix": "/home/prafful/.nvm/versions/node/v12.14.1",
    "XDG_SESSION_CLASS": "user",
    "USERNAME": "prafful",
    "TERM": "xterm-256color",
    "npm_config_cache": "/home/prafful/.npm",
    "GNOME_DESKTOP_SESSION_ID": "this-is-deprecated",
    "WINDOWPATH": "2",
    "npm_config_node_gyp": "/home/prafful/.nvm/versions/node/v12.14.1/lib/node_modules/npm/node_modules/node-gyp/bin/node-gyp.js",
    "PATH": "/home/prafful/Projects/rha/packages/rha-ui/node_modules/.bin:/home/prafful/Projects/rha/packages/node_modules/.bin:/home/prafful/Projects/rha/node_modules/.bin:/home/prafful/Projects/node_modules/.bin:/home/prafful/node_modules/.bin:/home/node_modules/.bin:/node_modules/.bin:/home/prafful/.nvm/versions/node/v12.14.1/lib/node_modules/npm/node_modules/@npmcli/run-script/lib/node-gyp-bin:/home/prafful/.nvm/versions/node/v12.14.1/bin:/usr/local/sbin:/usr/local/bin:/usr/sbin:/usr/bin:/sbin:/bin:/usr/games:/usr/local/games:/snap/bin",
    "SESSION_MANAGER": "local/osama:@/tmp/.ICE-unix/1680,unix/osama:/tmp/.ICE-unix/1680",
    "INVOCATION_ID": "1b139893593047c99320df50fad1bed5",
    "NODE": "/home/prafful/.nvm/versions/node/v12.14.1/bin/node",
    "npm_package_name": "rha-ui",
    "XDG_MENU_PREFIX": "gnome-",
    "BAMF_DESKTOP_FILE_HINT": "/var/lib/snapd/desktop/applications/code_code.desktop",
    "XDG_RUNTIME_DIR": "/run/user/1000",
    "GDK_BACKEND": "x11",
    "DISPLAY": ":0",
    "LANG": "en_GB.UTF-8",
    "XDG_CURRENT_DESKTOP": "Unity",
    "XMODIFIERS": "@im=ibus",
    "XDG_SESSION_DESKTOP": "ubuntu",
    "XAUTHORITY": "/run/user/1000/gdm/Xauthority",
    "TERM_PROGRAM": "vscode",
    "VSCODE_GIT_IPC_HANDLE": "/run/user/1000/vscode-git-269fc716ea.sock",
    "npm_lifecycle_script": "ng serve",
    "SSH_AUTH_SOCK": "/run/user/1000/keyring/ssh",
    "GSETTINGS_SCHEMA_DIR": "/snap/code/73/usr/share/glib-2.0/schemas",
    "ORIGINAL_XDG_CURRENT_DESKTOP": "ubuntu:GNOME",
    "SHELL": "/usr/bin/zsh",
    "DISABLE_WAYLAND": "1",
    "npm_package_version": "0.0.0",
    "npm_lifecycle_event": "start",
    "QT_ACCESSIBILITY": "1",
    "GDMSESSION": "ubuntu",
    "GPG_AGENT_INFO": "/run/user/1000/gnupg/S.gpg-agent:0:1",
    "GJS_DEBUG_OUTPUT": "stderr",
    "QT_IM_MODULE": "ibus",
    "npm_config_globalconfig": "/home/prafful/.nvm/versions/node/v12.14.1/etc/npmrc",
    "npm_config_init_module": "/home/prafful/.npm-init.js",
    "PWD": "/home/prafful/Projects/rha/packages/rha-ui",
    "npm_execpath": "/home/prafful/.nvm/versions/node/v12.14.1/lib/node_modules/npm/bin/npm-cli.js",
    "XDG_CONFIG_DIRS": "/etc/xdg/xdg-ubuntu:/etc/xdg",
    "NVM_CD_FLAGS": "-q",
    "XDG_DATA_DIRS": "/usr/share/ubuntu:/usr/local/share/:/usr/share/:/var/lib/snapd/desktop",
    "npm_config_global_prefix": "/home/prafful/.nvm/versions/node/v12.14.1",
    "npm_command": "run-script",
    "BREAKPAD_DUMP_LOCATION": "/home/prafful/.config/Code/exthost Crash Reports",
    "INIT_CWD": "/home/prafful/Projects/rha/packages/rha-ui",
    "EDITOR": "vi",
    "BROWSERSLIST_IGNORE_OLD_DATA": "1",
    "WEBPACK_DEV_SERVER": "true"
  },
  "userLimits": {
    "core_file_size_blocks": {
      "soft": 0,
      "hard": "unlimited"
    },
    "data_seg_size_kbytes": {
      "soft": "unlimited",
      "hard": "unlimited"
    },
    "file_size_blocks": {
      "soft": "unlimited",
      "hard": "unlimited"
    },
    "max_locked_memory_bytes": {
      "soft": 67108864,
      "hard": 67108864
    },
    "max_memory_size_kbytes": {
      "soft": "unlimited",
      "hard": "unlimited"
    },
    "open_files": {
      "soft": 1048576,
      "hard": 1048576
    },
    "stack_size_bytes": {
      "soft": 8388608,
      "hard": "unlimited"
    },
    "cpu_time_seconds": {
      "soft": "unlimited",
      "hard": "unlimited"
    },
    "max_user_processes": {
      "soft": 63381,
      "hard": 63381
    },
    "virtual_memory_kbytes": {
      "soft": "unlimited",
      "hard": "unlimited"
    }
  },
  "sharedObjects": [
    "linux-vdso.so.1",
    "/lib/x86_64-linux-gnu/libdl.so.2",
    "/lib/x86_64-linux-gnu/libstdc++.so.6",
    "/lib/x86_64-linux-gnu/libm.so.6",
    "/lib/x86_64-linux-gnu/libgcc_s.so.1",
    "/lib/x86_64-linux-gnu/libpthread.so.0",
    "/lib/x86_64-linux-gnu/libc.so.6",
    "/lib64/ld-linux-x86-64.so.2",
    "/lib/x86_64-linux-gnu/libnss_files.so.2"
  ]
}